Tidy data and statistical visualisation to support exploration of temporal data with R
…
```r
ped_loc <- read_csv("data/sensor_locations.csv")
ped_loc %>% 
  select(
    `Sensor ID`, `Sensor Description`, 
    Longitude, Latitude
  )
```

```
#> # A tibble: 43 x 4
#>    `Sensor ID`            `Sensor Description` Longitude
#>          <int>                           <chr>     <dbl>
#>  1          22 Flinders St-Elizabeth St (East)  144.9651
#>  2          34            Flinders St-Spark La  144.9742
#>  3          11                 Waterfront City  144.9396
#>  4           8                     Webb Bridge  144.9472
#>  5           7                  Birrarung Marr  144.9714
#>  6          13               Flagstaff Station  144.9566
#>  7          15                   State Library  144.9645
#>  8          27               QV Market-Peel St  144.9566
#>  9          12                        New Quay  144.9429
#> 10          24   Spencer St-Collins St (North)  144.9545
#> # ... with 33 more rows, and 1 more variables:
#> #   Latitude <dbl>
```
…
.left-column[
## Melbourne pedestrian data 🚶‍♀️
### - sensor data
### - sensor map
### - hourly counts
]
.right-column[

```r
ped_2017 <- read_csv("data/pedestrian_03_2017.csv")
ped_2017
```

```
#> # A tibble: 744 x 45
#>          Date  Hour `State Library` `Collins Place (South)`
#>         <chr> <int>           <int>                   <int>
#>  1 01/03/2017     0             140                      36
#>  2 01/03/2017     1              64                      17
#>  3 01/03/2017     2              29                      11
#>  4 01/03/2017     3              13                       9
#>  5 01/03/2017     4              13                      10
#>  6 01/03/2017     5              31                      84
#>  7 01/03/2017     6              92                     252
#>  8 01/03/2017     7             327                     767
#>  9 01/03/2017     8             908                    1997
#> 10 01/03/2017     9             775                    1319
#> # ... with 734 more rows, and 41 more variables: `Collins
#> #   Place (North)` <int>, `Flagstaff Station` <int>,
#> #   `Melbourne Central` <int>, `Town Hall (West)` <int>,
#> #   `Bourke Street Mall (North)` <int>, `Bourke Street Mall
#> #   (South)` <int>, `Australia on Collins` <int>, `Southern
#> #   Cross Station` <int>, `Victoria Point` <int>, `New
#> #   Quay` <int>, `Waterfront City` <int>, `Webb
#> #   Bridge` <int>, `Princes Bridge` <int>, `Flinders St
#> #   Station Underpass` <int>, `Sandridge Bridge` <int>,
…
```r
ped_long <- ped_2017 %>% 
  gather(
    key = Sensor_Name, value = Counts, 
    `State Library`:Southbank
  ) %>% 
  mutate(
    Date_Time = dmy_hms(paste(Date, Hour, "00:00")),
    Date = dmy(Date)
  )
ped_long
```

```
#> # A tibble: 31,992 x 5
#>          Date  Hour   Sensor_Name Counts
#>        <date> <int>         <chr>  <int>
#>  1 2017-03-01     0 State Library    140
#>  2 2017-03-01     1 State Library     64
#>  3 2017-03-01     2 State Library     29
#>  4 2017-03-01     3 State Library     13
#>  5 2017-03-01     4 State Library     13
#>  6 2017-03-01     5 State Library     31
#>  7 2017-03-01     6 State Library     92
#>  8 2017-03-01     7 State Library    327
#>  9 2017-03-01     8 State Library    908
#> 10 2017-03-01     9 State Library    775
#> # ... with 31,982 more rows, and 1 more variables:
#> #   Date_Time <dttm>
```
…
.left-column[
## Otway weather data ☀️
### - what variables?
### - tidying 🛠
]
.right-column[

```r
otway_weather %>% 
  gather(DAY, VALUE, VALUE1:VALUE31)
```

```
#> # A tibble: 1,488 x 6
#>             ID  YEAR MONTH ELEMENT    DAY VALUE
#>          <chr> <int> <chr>   <chr>  <chr> <int>
#>  1 ASN00090015  2016    01    TMAX VALUE1   209
#>  2 ASN00090015  2016    01    TMIN VALUE1   175
#>  3 ASN00090015  2016    01    PRCP VALUE1     0
#>  4 ASN00090015  2016    01    TAVG VALUE1   166
#>  5 ASN00090015  2016    02    TMAX VALUE1   217
#>  6 ASN00090015  2016    02    TMIN VALUE1   120
#>  7 ASN00090015  2016    02    PRCP VALUE1     2
#>  8 ASN00090015  2016    02    TAVG VALUE1   187
#>  9 ASN00090015  2016    03    TMAX VALUE1   243
#> 10 ASN00090015  2016    03    TMIN VALUE1   172
#> # ... with 1,478 more rows
```
…
```r
otway_weather %>% 
  gather(DAY, VALUE, VALUE1:VALUE31) %>% 
  mutate(
    DAY = str_sub(DAY, start = 6),
    DATE = ymd(paste(YEAR, MONTH, DAY, sep = "-"))
  ) %>% 
  arrange(DATE) %>% 
  select(ID, DATE, ELEMENT, VALUE) %>% 
  filter(!(is.na(DATE)))
```

```
#> # A tibble: 1,464 x 4
#>             ID       DATE ELEMENT VALUE
#>          <chr>     <date>   <chr> <int>
#>  1 ASN00090015 2016-01-01    TMAX   209
#>  2 ASN00090015 2016-01-01    TMIN   175
#>  3 ASN00090015 2016-01-01    PRCP     0
#>  4 ASN00090015 2016-01-01    TAVG   166
#>  5 ASN00090015 2016-01-02    TMAX   195
#>  6 ASN00090015 2016-01-02    TMIN   145
#>  7 ASN00090015 2016-01-02    PRCP     0
#>  8 ASN00090015 2016-01-02    TAVG   174
#>  9 ASN00090015 2016-01-03    TMAX   193
#> 10 ASN00090015 2016-01-03    TMIN   162
#> # ... with 1,454 more rows
```
…
```
#> # A tibble: 366 x 6
#>             ID       DATE  PRCP  TAVG  TMAX  TMIN
#>  *       <chr>     <date> <dbl> <dbl> <dbl> <dbl>
#>  1 ASN00090015 2016-01-01     0  16.6  20.9  17.5
#>  2 ASN00090015 2016-01-02     0  17.4  19.5  14.5
#>  3 ASN00090015 2016-01-03     0  17.5  19.3  16.2
#>  4 ASN00090015 2016-01-04     0  17.7  20.2  16.7
#>  5 ASN00090015 2016-01-05     0  17.8  20.6  16.1
#>  6 ASN00090015 2016-01-06     0  17.1  20.3  16.5
#>  7 ASN00090015 2016-01-07     0  15.8  19.7  14.8
#>  8 ASN00090015 2016-01-08     0  15.6  18.8  14.2
#>  9 ASN00090015 2016-01-09     0  15.7  19.0  11.3
#> 10 ASN00090015 2016-01-10     0  18.6  25.4  11.9
#> # ... with 356 more rows
```
…
```r
rank
```

```
#> # A tibble: 456 x 4
#>       id date.entered  week  rank
#>    <int>       <date> <chr> <chr>
#>  1     1   2000-10-14     1    39
#>  2     2   2000-01-01     1    74
#>  3     3   2000-05-27     1    58
#>  4     4   2000-01-29     1    42
#>  5     5   2000-05-06     1    82
#>  6     6   2000-09-30     1    68
#>  7     1   2000-10-14     2    25
#>  8     2   2000-01-01     2    62
#>  9     3   2000-05-27     2    50
#> 10     4   2000-01-29     2    20
#> # ... with 446 more rows
```
…
---

.left-column[
## More on pedestrian data
### - revisit
]
.right-column[

```r
ped_long
```

```
#> # A tibble: 31,992 x 5
#>          Date  Hour   Sensor_Name Counts
#>        <date> <int>         <chr>  <int>
#>  1 2017-03-01     0 State Library    140
#>  2 2017-03-01     1 State Library     64
#>  3 2017-03-01     2 State Library     29
#>  4 2017-03-01     3 State Library     13
#>  5 2017-03-01     4 State Library     13
#>  6 2017-03-01     5 State Library     31
#>  7 2017-03-01     6 State Library     92
#>  8 2017-03-01     7 State Library    327
#>  9 2017-03-01     8 State Library    908
#> 10 2017-03-01     9 State Library    775
#> # ... with 31,982 more rows, and 1 more variables:
#> #   Date_Time <dttm>
```
…
```r
wday <- c("Monday", "Tuesday", "Wednesday", "Thursday", 
  "Friday")
sx <- ped_long %>% 
  filter(Sensor_Name == "Southern Cross Station") %>% 
  mutate(
    Wday = wday(Date, label = TRUE, abbr = FALSE),
    Wday = if_else(Wday %in% wday, "Weekday", "Weekend"),
    Wday = ordered(Wday)
  )
sx
```

```
#> # A tibble: 744 x 6
#>          Date  Hour            Sensor_Name Counts
#>        <date> <int>                  <chr>  <int>
#>  1 2017-03-01     0 Southern Cross Station     16
#>  2 2017-03-01     1 Southern Cross Station      8
#>  3 2017-03-01     2 Southern Cross Station      3
#>  4 2017-03-01     3 Southern Cross Station      4
#>  5 2017-03-01     4 Southern Cross Station      1
#>  6 2017-03-01     5 Southern Cross Station     96
#>  7 2017-03-01     6 Southern Cross Station    581
#>  8 2017-03-01     7 Southern Cross Station   1847
#>  9 2017-03-01     8 Southern Cross Station   3863
#> 10 2017-03-01     9 Southern Cross Station   2063
#> # ... with 734 more rows, and 2 more variables:
#> #   Date_Time <dttm>, Wday <ord>
```
…
```r
otway_more <- otway_tidy %>% 
  mutate(
    MONTH = month(DATE, label = TRUE),
    DAY = mday(DATE)
  ) 
otway_more
```

```
#> # A tibble: 366 x 9
#>             ID       DATE  PRCP  TAVG  TMAX  TMIN  NAVG
#>          <chr>     <date> <dbl> <dbl> <dbl> <dbl> <dbl>
#>  1 ASN00090015 2016-01-01     0  16.6  20.9  17.5 19.20
#>  2 ASN00090015 2016-01-02     0  17.4  19.5  14.5 17.00
#>  3 ASN00090015 2016-01-03     0  17.5  19.3  16.2 17.75
#>  4 ASN00090015 2016-01-04     0  17.7  20.2  16.7 18.45
#>  5 ASN00090015 2016-01-05     0  17.8  20.6  16.1 18.35
#>  6 ASN00090015 2016-01-06     0  17.1  20.3  16.5 18.40
#>  7 ASN00090015 2016-01-07     0  15.8  19.7  14.8 17.25
#>  8 ASN00090015 2016-01-08     0  15.6  18.8  14.2 16.50
#>  9 ASN00090015 2016-01-09     0  15.7  19.0  11.3 15.15
#> 10 ASN00090015 2016-01-10     0  18.6  25.4  11.9 18.65
#> # ... with 356 more rows, and 2 more variables:
#> #   MONTH <ord>, DAY <int>
```
…
`frame_calendar` rearranges the data into a calendar format using linear algebra tools.

```r
sx_cal <- sx %>% 
  frame_calendar(
    x = Hour, y = Counts, date = Date, nrow = 1, ncol = 1
  )
sx_cal
```

```
#> # A tibble: 744 x 9
#>          Date  Hour            Sensor_Name Counts
#>        <date> <int>                  <chr>  <int>
#>  1 2017-03-01     0 Southern Cross Station     16
#>  2 2017-03-01     1 Southern Cross Station      8
#>  3 2017-03-01     2 Southern Cross Station      3
#>  4 2017-03-01     3 Southern Cross Station      4
#>  5 2017-03-01     4 Southern Cross Station      1
#>  6 2017-03-01     5 Southern Cross Station     96
#>  7 2017-03-01     6 Southern Cross Station    581
#>  8 2017-03-01     7 Southern Cross Station   1847
#>  9 2017-03-01     8 Southern Cross Station   3863
#> 10 2017-03-01     9 Southern Cross Station   2063
#> # ... with 734 more rows, and 5 more variables:
#> #   Date_Time <dttm>, Wday <ord>, .group_id <dbl>,
#> #   .x <dbl>, .y <dbl>
```
…
