Grammar of graphics
…
## Parsed with column specification:
## cols(
##   .default = col_integer(),
##   ID = col_character(),
##   MONTH = col_character(),
##   ELEMENT = col_character()
## )

## See spec(...) for full column specifications.

otway_weather

## # A tibble: 48 x 35
##             ID  YEAR MONTH ELEMENT VALUE1 VALUE2 VALUE3 VALUE4 VALUE5
##          <chr> <int> <chr>   <chr>  <int>  <int>  <int>  <int>  <int>
##  1 ASN00090015  2016    01    TMAX    209    195    193    202    206
##  2 ASN00090015  2016    01    TMIN    175    145    162    167    161
##  3 ASN00090015  2016    01    PRCP      0      0      0      0      0
##  4 ASN00090015  2016    01    TAVG    166    174    175    177    178
##  5 ASN00090015  2016    02    TMAX    217    239    185    192    220
##  6 ASN00090015  2016    02    TMIN    120    146    149    150    153
##  7 ASN00090015  2016    02    PRCP      2      0     48      0      0
##  8 ASN00090015  2016    02    TAVG    187    188    166    167    191
##  9 ASN00090015  2016    03    TMAX    243    249    203    222    217
## 10 ASN00090015  2016    03    TMIN    172    166    152    147    174
## # ... with 38 more rows, and 26 more variables: VALUE6 <int>,
## #   VALUE7 <int>, VALUE8 <int>, VALUE9 <int>, VALUE10 <int>,
## #   VALUE11 <int>, VALUE12 <int>, VALUE13 <int>, VALUE14 <int>,
## #   VALUE15 <int>, VALUE16 <int>, VALUE17 <int>, VALUE18 <int>,
## #   VALUE19 <int>, VALUE20 <int>, VALUE21 <int>, VALUE22 <int>,
## #   VALUE23 <int>, VALUE24 <int>, VALUE25 <int>, VALUE26 <int>,
## #   VALUE27 <int>, VALUE28 <int>, VALUE29 <int>, VALUE30 <int>,
## #   VALUE31 <int>
…
